0123456789
001234512E-12
1234513E+11
123456789012345678901234567890123456789012345678901234567890123456789012345678901234567890123456789
0001234512012345678901234567890123456789012345678901234567893E+1012345678901234567012345678901234567898923
1234513E+11
