12345

ABCDEFGHIJKLMNOPQRSTUVWXYZ
abcdefghijklmnopqrstuvwxyz
+  -  *  <  =  !  &&  ;  (  )  {  }  [  ]
a
12340
1234512E123
12345123E+123
1234512E-123

dies ist ein :* 111 aaaa +- 12340 mod*: Kommentar

print
read
printread
readprint
ABCDEFGHIJKLMNOPQRSTUVWXYZ
