int[2] a;
:*lol lol lol*:
int b;
int c;

c:=6;
a :=:*lol lol lol*: 4;

if(a = 4) a := 5;
a:=4;
b:=5;
while(b < 5) a := a + 1;
write(a:*lol lol lol*:);
write(a);
read(b);
a:=-5;
{a := 5;};
if(a = 4) a := 5;
